%YAML 1.1
%TAG !u! tag:unity3d.com,2011:
--- !u!1045 &1
EditorBuildSettings:
  m_ObjectHideFlags: 0
  serializedVersion: 2
  m_Scenes:
  - enabled: 1
    path: Assets/Scenes/MainMenuGames.unity
    guid: 80beece507ef98448b522cbb69bc572b
  - enabled: 1
    path: Assets/Tetris/Scenes/ModeScene.unity
    guid: c156a6b34383d4487b0d238b1c8cc0a9
  - enabled: 1
    path: Assets/2048/Scenes/2048.unity
    guid: b85275f38beaa284bb66fbc6d5441c62
  - enabled: 1
    path: Assets/BrickBreaker/Scenes/Level1.unity
    guid: 5582e6c0100ac524e8bcaf6a972160a8
  - enabled: 1
    path: Assets/BubblePazzle/Scenes/Main.unity
    guid: 99c9720ab356a0642a771bea13969a05
  - enabled: 1
    path: Assets/FlappyBird/Scenes/mainGame.unity
    guid: 8e13387fcdb11fb469cf436378ddd163
  - enabled: 1
    path: Assets/Match3/Scenes/Main.unity
    guid: 7a6c991112cc94f76b954fbdd147dd5a
  - enabled: 1
    path: Assets/Tetris/Scenes/GameScene.unity
    guid: 2cda990e2423bbf4892e6590ba056729
  m_configObjects: {}
